\relax 
\providecommand\hyper@newdestlabel[2]{}
\providecommand\HyperFirstAtBeginDocument{\AtBeginDocument}
\HyperFirstAtBeginDocument{\ifx\hyper@anchor\@undefined
\global\let\oldcontentsline\contentsline
\gdef\contentsline#1#2#3#4{\oldcontentsline{#1}{#2}{#3}}
\global\let\oldnewlabel\newlabel
\gdef\newlabel#1#2{\newlabelxx{#1}#2}
\gdef\newlabelxx#1#2#3#4#5#6{\oldnewlabel{#1}{{#2}{#3}}}
\AtEndDocument{\ifx\hyper@anchor\@undefined
\let\contentsline\oldcontentsline
\let\newlabel\oldnewlabel
\fi}
\fi}
\global\let\hyper@last\relax 
\gdef\HyperFirstAtBeginDocument#1{#1}
\providecommand\HyField@AuxAddToFields[1]{}
\providecommand\HyField@AuxAddToCoFields[2]{}
\providecommand \oddpage@label [2]{}
\@writefile{toc}{\@ifundefined {etoctocstyle}{\let \etoc@startlocaltoc \@gobble \let \etoc@settocdepth \@gobble \let \etoc@depthtag \@gobble \let \etoc@setlocaltop \@gobble }{}}
\@writefile{toc}{\contentsline {chapter}{\numberline {1}Class Index}{1}{chapter.1}}
\@writefile{lof}{\addvspace {10\p@ }}
\@writefile{lot}{\addvspace {10\p@ }}
\@writefile{toc}{\contentsline {section}{\numberline {1.1}Class List}{1}{section.1.1}}
\@writefile{toc}{\contentsline {chapter}{\numberline {2}File Index}{3}{chapter.2}}
\@writefile{lof}{\addvspace {10\p@ }}
\@writefile{lot}{\addvspace {10\p@ }}
\@writefile{toc}{\contentsline {section}{\numberline {2.1}File List}{3}{section.2.1}}
\@writefile{toc}{\contentsline {chapter}{\numberline {3}Class Documentation}{5}{chapter.3}}
\@writefile{lof}{\addvspace {10\p@ }}
\@writefile{lot}{\addvspace {10\p@ }}
\@writefile{toc}{\contentsline {section}{\numberline {3.1}Crc Class Reference}{5}{section.3.1}}
\newlabel{classCrc}{{3.1}{5}{Crc Class Reference}{section.3.1}{}}
\@writefile{toc}{\contentsline {subsection}{\numberline {3.1.1}Detailed Description}{5}{subsection.3.1.1}}
\@writefile{toc}{\contentsline {subsection}{\numberline {3.1.2}Constructor \& Destructor Documentation}{5}{subsection.3.1.2}}
\newlabel{classCrc_a8ea297e1350dd1cf9e97b678164d886d}{{3.1.2}{5}{Constructor \& Destructor Documentation}{subsection.3.1.2}{}}
\gdef \LT@i {\LT@entry 
    {3}{26.80359pt}\LT@entry 
    {3}{147.28004pt}}
\@writefile{toc}{\contentsline {subsubsection}{\numberline {3.1.2.1}Crc()}{6}{subsubsection.3.1.2.1}}
\newlabel{classCrc_a735c66b21da047e6a6ac981307e121c9}{{3.1.2.1}{6}{\texorpdfstring {Crc()}{Crc()}}{subsubsection.3.1.2.1}{}}
\@writefile{toc}{\contentsline {subsubsection}{\numberline {3.1.2.2}$\sim $Crc()}{6}{subsubsection.3.1.2.2}}
\@writefile{toc}{\contentsline {subsection}{\numberline {3.1.3}Member Function Documentation}{6}{subsection.3.1.3}}
\newlabel{classCrc_ac7da91e704be50c9567c5e3d6de79a30}{{3.1.3}{6}{Member Function Documentation}{subsection.3.1.3}{}}
\@writefile{toc}{\contentsline {subsubsection}{\numberline {3.1.3.1}calculate()}{6}{subsubsection.3.1.3.1}}
\newlabel{classCrc_af22ead99a0ac2a1e17f681462d4fbd16}{{3.1.3.1}{6}{\texorpdfstring {calculate()}{calculate()}}{table.3.1}{}}
\@writefile{toc}{\contentsline {subsubsection}{\numberline {3.1.3.2}calculateMore()}{6}{subsubsection.3.1.3.2}}
\gdef \LT@ii {\LT@entry 
    {3}{26.80359pt}\LT@entry 
    {3}{192.09pt}}
\newlabel{classCrc_a981ce730f46558a3aa3559a03e060f2b}{{3.1.3.2}{7}{\texorpdfstring {calculateMore()}{calculateMore()}}{table.3.2}{}}
\@writefile{toc}{\contentsline {subsubsection}{\numberline {3.1.3.3}getCurrentValue()}{7}{subsubsection.3.1.3.3}}
\@writefile{toc}{\contentsline {section}{\numberline {3.2}Elevator Class Reference}{7}{section.3.2}}
\newlabel{classElevator}{{3.2}{7}{Elevator Class Reference}{section.3.2}{}}
\newlabel{classElevator_ab9f5dcb088668f80255557db8421db87}{{3.2}{7}{Public Types}{section*.2}{}}
\@writefile{toc}{\contentsline {subsection}{\numberline {3.2.1}Detailed Description}{8}{subsection.3.2.1}}
\gdef \LT@iii {\LT@entry 
    {3}{36.8025pt}\LT@entry 
    {3}{296.6231pt}}
\@writefile{toc}{\contentsline {subsection}{\numberline {3.2.2}Constructor \& Destructor Documentation}{9}{subsection.3.2.2}}
\newlabel{classElevator_a42ec2949d6e5f9bf90c361933562eb5f}{{3.2.2}{9}{Constructor \& Destructor Documentation}{subsection.3.2.2}{}}
\@writefile{toc}{\contentsline {subsubsection}{\numberline {3.2.2.1}Elevator()}{9}{subsubsection.3.2.2.1}}
\newlabel{classElevator_a6e2fb71cfcde094c087b8a19a8bcab4b}{{3.2.2.1}{9}{\texorpdfstring {Elevator()}{Elevator()}}{subsubsection.3.2.2.1}{}}
\@writefile{toc}{\contentsline {subsubsection}{\numberline {3.2.2.2}$\sim $Elevator()}{9}{subsubsection.3.2.2.2}}
\@writefile{toc}{\contentsline {subsection}{\numberline {3.2.3}Member Function Documentation}{9}{subsection.3.2.3}}
\newlabel{classElevator_a8e38025583419c8371b81c96595bfd7b}{{3.2.3}{9}{Member Function Documentation}{subsection.3.2.3}{}}
\@writefile{toc}{\contentsline {subsubsection}{\numberline {3.2.3.1}getNextInput()}{9}{subsubsection.3.2.3.1}}
\newlabel{classElevator_a44590a9ea568596326049632e8fb003a}{{3.2.3.1}{9}{\texorpdfstring {getNextInput()}{getNextInput()}}{table.3.3}{}}
\@writefile{toc}{\contentsline {subsubsection}{\numberline {3.2.3.2}printText()}{9}{subsubsection.3.2.3.2}}
\gdef \LT@iv {\LT@entry 
    {3}{26.80359pt}\LT@entry 
    {3}{186.861pt}}
\newlabel{classElevator_afe8eb91e3e3210d93dd90be13593b05c}{{3.2.3.2}{10}{\texorpdfstring {printText()}{printText()}}{table.3.4}{}}
\@writefile{toc}{\contentsline {subsubsection}{\numberline {3.2.3.3}requestAllSensorsValue()}{10}{subsubsection.3.2.3.3}}
\newlabel{classElevator_a8b39bedec1b7f617ba9c292c178e61fb}{{3.2.3.3}{10}{\texorpdfstring {requestAllSensorsValue()}{requestAllSensorsValue()}}{subsubsection.3.2.3.3}{}}
\@writefile{toc}{\contentsline {subsubsection}{\numberline {3.2.3.4}requestEngineEncoder()}{10}{subsubsection.3.2.3.4}}
\newlabel{classElevator_a707b6b138d90bc073cef54bef6d62c44}{{3.2.3.4}{10}{\texorpdfstring {requestEngineEncoder()}{requestEngineEncoder()}}{subsubsection.3.2.3.4}{}}
\@writefile{toc}{\contentsline {subsubsection}{\numberline {3.2.3.5}requestSensorValue()}{10}{subsubsection.3.2.3.5}}
\newlabel{classElevator_a2f788efba74811f9f47aec3834cb1272}{{3.2.3.5}{10}{\texorpdfstring {requestSensorValue()}{requestSensorValue()}}{subsubsection.3.2.3.5}{}}
\@writefile{toc}{\contentsline {subsubsection}{\numberline {3.2.3.6}reset()}{10}{subsubsection.3.2.3.6}}
\newlabel{classElevator_a82ae9fb6b71ec11d0bed16cad051ac20}{{3.2.3.6}{10}{\texorpdfstring {reset()}{reset()}}{subsubsection.3.2.3.6}{}}
\gdef \LT@v {\LT@entry 
    {3}{26.80359pt}\LT@entry 
    {3}{85.56834pt}}
\gdef \LT@vi {\LT@entry 
    {3}{26.80359pt}\LT@entry 
    {3}{85.56834pt}}
\@writefile{toc}{\contentsline {subsubsection}{\numberline {3.2.3.7}restoreWatchDog()}{11}{subsubsection.3.2.3.7}}
\newlabel{classElevator_ad6e59f52365c3e36abe76635f44fd865}{{3.2.3.7}{11}{\texorpdfstring {restoreWatchDog()}{restoreWatchDog()}}{subsubsection.3.2.3.7}{}}
\@writefile{toc}{\contentsline {subsubsection}{\numberline {3.2.3.8}sendWatchDogSignal()}{11}{subsubsection.3.2.3.8}}
\newlabel{classElevator_a1064777c999fc9527180bbe58b02e0fe}{{3.2.3.8}{11}{\texorpdfstring {sendWatchDogSignal()}{sendWatchDogSignal()}}{subsubsection.3.2.3.8}{}}
\@writefile{toc}{\contentsline {subsubsection}{\numberline {3.2.3.9}setAllLedsIN()}{11}{subsubsection.3.2.3.9}}
\newlabel{classElevator_ad1e727d7ff5e760faf37851a3cace0e2}{{3.2.3.9}{11}{\texorpdfstring {setAllLedsIN()}{setAllLedsIN()}}{table.3.5}{}}
\@writefile{toc}{\contentsline {subsubsection}{\numberline {3.2.3.10}setAllLedsOUT()}{11}{subsubsection.3.2.3.10}}
\newlabel{classElevator_a339935b39a540e53493610695693447b}{{3.2.3.10}{11}{\texorpdfstring {setAllLedsOUT()}{setAllLedsOUT()}}{table.3.6}{}}
\gdef \LT@vii {\LT@entry 
    {3}{26.80359pt}\LT@entry 
    {3}{153.72423pt}}
\gdef \LT@viii {\LT@entry 
    {3}{26.80359pt}\LT@entry 
    {3}{212.3758pt}}
\gdef \LT@ix {\LT@entry 
    {3}{26.80359pt}\LT@entry 
    {3}{212.3758pt}}
\@writefile{toc}{\contentsline {subsubsection}{\numberline {3.2.3.11}setCabinLock()}{12}{subsubsection.3.2.3.11}}
\newlabel{classElevator_a73d5e54fb90bd3ca525f53acad33fb64}{{3.2.3.11}{12}{\texorpdfstring {setCabinLock()}{setCabinLock()}}{table.3.7}{}}
\@writefile{toc}{\contentsline {subsubsection}{\numberline {3.2.3.12}setDisplay()\hspace  {0.1cm}{\relax \fontsize  {8}{9.5}\selectfont  \abovedisplayskip 6\p@ plus2\p@ minus4\p@ \abovedisplayshortskip \z@ plus\p@ \belowdisplayshortskip 3\p@ plus\p@ minus2\p@ \def \leftmargin \leftmargini \parsep 4\p@ plus2\p@ minus\p@ \topsep 8\p@ plus2\p@ minus4\p@ \itemsep 4\p@ plus2\p@ minus\p@ {\leftmargin \leftmargini \topsep 3\p@ plus\p@ minus\p@ \parsep 2\p@ plus\p@ minus\p@ \itemsep \parsep }\belowdisplayskip \abovedisplayskip \ttfamily  [1/3]}}{12}{subsubsection.3.2.3.12}}
\newlabel{classElevator_a0c025e8c0f1477594bd8bad5f529199c}{{3.2.3.12}{12}{\texorpdfstring {setDisplay()}{setDisplay()}\hspace {0.1cm}{\footnotesize \ttfamily [1/3]}}{table.3.8}{}}
\@writefile{toc}{\contentsline {subsubsection}{\numberline {3.2.3.13}setDisplay()\hspace  {0.1cm}{\relax \fontsize  {8}{9.5}\selectfont  \abovedisplayskip 6\p@ plus2\p@ minus4\p@ \abovedisplayshortskip \z@ plus\p@ \belowdisplayshortskip 3\p@ plus\p@ minus2\p@ \def \leftmargin \leftmargini \parsep 4\p@ plus2\p@ minus\p@ \topsep 8\p@ plus2\p@ minus4\p@ \itemsep 4\p@ plus2\p@ minus\p@ {\leftmargin \leftmargini \topsep 3\p@ plus\p@ minus\p@ \parsep 2\p@ plus\p@ minus\p@ \itemsep \parsep }\belowdisplayskip \abovedisplayskip \ttfamily  [2/3]}}{12}{subsubsection.3.2.3.13}}
\newlabel{classElevator_ab190b2193dbcf9ccfd7bcc71a8aba4a3}{{3.2.3.13}{12}{\texorpdfstring {setDisplay()}{setDisplay()}\hspace {0.1cm}{\footnotesize \ttfamily [2/3]}}{table.3.9}{}}
\gdef \LT@x {\LT@entry 
    {3}{26.80359pt}\LT@entry 
    {3}{138.37938pt}}
\gdef \LT@xi {\LT@entry 
    {3}{26.80359pt}\LT@entry 
    {3}{231.5994pt}}
\gdef \LT@xii {\LT@entry 
    {3}{26.80359pt}\LT@entry 
    {3}{174.00945pt}}
\@writefile{toc}{\contentsline {subsubsection}{\numberline {3.2.3.14}setDisplay()\hspace  {0.1cm}{\relax \fontsize  {8}{9.5}\selectfont  \abovedisplayskip 6\p@ plus2\p@ minus4\p@ \abovedisplayshortskip \z@ plus\p@ \belowdisplayshortskip 3\p@ plus\p@ minus2\p@ \def \leftmargin \leftmargini \parsep 4\p@ plus2\p@ minus\p@ \topsep 8\p@ plus2\p@ minus4\p@ \itemsep 4\p@ plus2\p@ minus\p@ {\leftmargin \leftmargini \topsep 3\p@ plus\p@ minus\p@ \parsep 2\p@ plus\p@ minus\p@ \itemsep \parsep }\belowdisplayskip \abovedisplayskip \ttfamily  [3/3]}}{13}{subsubsection.3.2.3.14}}
\newlabel{classElevator_acb691ba6646e95ed7893c634deb74d87}{{3.2.3.14}{13}{\texorpdfstring {setDisplay()}{setDisplay()}\hspace {0.1cm}{\footnotesize \ttfamily [3/3]}}{table.3.10}{}}
\@writefile{toc}{\contentsline {subsubsection}{\numberline {3.2.3.15}setDisplayFloor()}{13}{subsubsection.3.2.3.15}}
\newlabel{classElevator_aa78380a0642ce594cded11b36abf9e9d}{{3.2.3.15}{13}{\texorpdfstring {setDisplayFloor()}{setDisplayFloor()}}{table.3.11}{}}
\@writefile{toc}{\contentsline {subsubsection}{\numberline {3.2.3.16}setEmergencyBreak()}{13}{subsubsection.3.2.3.16}}
\newlabel{classElevator_a53082a36ec11defdc800f3a000b17e16}{{3.2.3.16}{13}{\texorpdfstring {setEmergencyBreak()}{setEmergencyBreak()}}{table.3.12}{}}
\@writefile{toc}{\contentsline {subsubsection}{\numberline {3.2.3.17}setEngineSpeed()}{13}{subsubsection.3.2.3.17}}
\gdef \LT@xiii {\LT@entry 
    {3}{26.80359pt}\LT@entry 
    {3}{192.82832pt}}
\gdef \LT@xiv {\LT@entry 
    {3}{26.80359pt}\LT@entry 
    {3}{224.98479pt}}
\gdef \LT@xv {\LT@entry 
    {3}{26.80359pt}\LT@entry 
    {3}{224.98479pt}}
\newlabel{classElevator_ae20af19e4de905e738119576d0c6a39d}{{3.2.3.17}{14}{\texorpdfstring {setEngineSpeed()}{setEngineSpeed()}}{table.3.13}{}}
\@writefile{toc}{\contentsline {subsubsection}{\numberline {3.2.3.18}setLedIN()}{14}{subsubsection.3.2.3.18}}
\newlabel{classElevator_a420b0aa76c26b5fff285b42b38fdb316}{{3.2.3.18}{14}{\texorpdfstring {setLedIN()}{setLedIN()}}{table.3.14}{}}
\@writefile{toc}{\contentsline {subsubsection}{\numberline {3.2.3.19}setLedOUT()}{14}{subsubsection.3.2.3.19}}
\newlabel{classElevator_ab1711a46d3222ec0a3521797f2d82619}{{3.2.3.19}{14}{\texorpdfstring {setLedOUT()}{setLedOUT()}}{table.3.15}{}}
\@writefile{toc}{\contentsline {subsubsection}{\numberline {3.2.3.20}stopEngine()}{14}{subsubsection.3.2.3.20}}
\@writefile{toc}{\contentsline {section}{\numberline {3.3}I2c Class Reference}{15}{section.3.3}}
\newlabel{classI2c}{{3.3}{15}{I2c Class Reference}{section.3.3}{}}
\@writefile{toc}{\contentsline {subsection}{\numberline {3.3.1}Detailed Description}{15}{subsection.3.3.1}}
\@writefile{toc}{\contentsline {subsection}{\numberline {3.3.2}Constructor \& Destructor Documentation}{15}{subsection.3.3.2}}
\newlabel{classI2c_a36df1af69fc9ca5ee3b2c9812ccf5797}{{3.3.2}{15}{Constructor \& Destructor Documentation}{subsection.3.3.2}{}}
\@writefile{toc}{\contentsline {subsubsection}{\numberline {3.3.2.1}I2c()}{15}{subsubsection.3.3.2.1}}
\newlabel{classI2c_a4e070c0892abaaf1993c40a5dc1ecee2}{{3.3.2.1}{15}{\texorpdfstring {I2c()}{I2c()}}{subsubsection.3.3.2.1}{}}
\gdef \LT@xvi {\LT@entry 
    {3}{36.8025pt}\LT@entry 
    {3}{252.32574pt}}
\gdef \LT@xvii {\LT@entry 
    {3}{36.79999pt}\LT@entry 
    {3}{29.9136pt}\LT@entry 
    {3}{235.20844pt}}
\@writefile{toc}{\contentsline {subsubsection}{\numberline {3.3.2.2}$\sim $I2c()}{16}{subsubsection.3.3.2.2}}
\@writefile{toc}{\contentsline {subsection}{\numberline {3.3.3}Member Function Documentation}{16}{subsection.3.3.3}}
\newlabel{classI2c_a9eb6ea72abfa6423011d0c7f60c9e501}{{3.3.3}{16}{Member Function Documentation}{subsection.3.3.3}{}}
\@writefile{toc}{\contentsline {subsubsection}{\numberline {3.3.3.1}read()}{16}{subsubsection.3.3.3.1}}
\newlabel{classI2c_a6183e6e8ae5abcc833785d51d30a6e11}{{3.3.3.1}{16}{\texorpdfstring {read()}{read()}}{table.3.16}{}}
\@writefile{toc}{\contentsline {subsubsection}{\numberline {3.3.3.2}readRegs()}{16}{subsubsection.3.3.3.2}}
\gdef \LT@xviii {\LT@entry 
    {3}{26.80359pt}\LT@entry 
    {3}{261.24474pt}}
\newlabel{classI2c_afb0e1ffd7b310e6e5fee55faf9b6fdce}{{3.3.3.2}{17}{\texorpdfstring {readRegs()}{readRegs()}}{table.3.17}{}}
\@writefile{toc}{\contentsline {subsubsection}{\numberline {3.3.3.3}write()}{17}{subsubsection.3.3.3.3}}
\@writefile{toc}{\contentsline {section}{\numberline {3.4}M\discretionary {\unhbox \voidb@x \hbox {\relax \fontsize  {7}{8}\selectfont  $\leftarrow \joinrel  \rhook $}}{}{}M\discretionary {\unhbox \voidb@x \hbox {\relax \fontsize  {7}{8}\selectfont  $\leftarrow \joinrel  \rhook $}}{}{}A8451Q Class Reference}{17}{section.3.4}}
\newlabel{classMMA8451Q}{{3.4}{17}{M\+M\+A8451Q Class Reference}{section.3.4}{}}
\newlabel{classMMA8451Q_a90d90b107eb4b8ac92574dbb297f88fb}{{3.4}{17}{Public Types}{section*.5}{}}
\newlabel{classMMA8451Q_a972d6135a89ebfdfe0f621471ca6c6cb}{{3.4}{17}{Public Types}{section*.5}{}}
\newlabel{classMMA8451Q_aaf2ab4c49d438464723c79fcb30c01aa}{{3.4}{17}{Public Types}{section*.5}{}}
\newlabel{classMMA8451Q_ad786dd50d0b62716b253eae4f8c04a5d}{{3.4}{17}{Public Types}{section*.5}{}}
\gdef \LT@xix {\LT@entry 
    {3}{26.80359pt}\LT@entry 
    {3}{288.77478pt}}
\@writefile{toc}{\contentsline {subsection}{\numberline {3.4.1}Detailed Description}{18}{subsection.3.4.1}}
\@writefile{toc}{\contentsline {subsection}{\numberline {3.4.2}Constructor \& Destructor Documentation}{18}{subsection.3.4.2}}
\newlabel{classMMA8451Q_a9c26a22bc409cb706d1e801719a2e40a}{{3.4.2}{18}{Constructor \& Destructor Documentation}{subsection.3.4.2}{}}
\@writefile{toc}{\contentsline {subsubsection}{\numberline {3.4.2.1}MMA8451Q()}{18}{subsubsection.3.4.2.1}}
\gdef \LT@xx {\LT@entry 
    {3}{26.80359pt}\LT@entry 
    {3}{196.38281pt}}
\newlabel{classMMA8451Q_add2fade85a24b3c6ae7cc489a04ba009}{{3.4.2.1}{19}{\texorpdfstring {MMA8451Q()}{MMA8451Q()}}{table.3.19}{}}
\@writefile{toc}{\contentsline {subsubsection}{\numberline {3.4.2.2}$\sim $MMA8451Q()}{19}{subsubsection.3.4.2.2}}
\@writefile{toc}{\contentsline {subsection}{\numberline {3.4.3}Member Function Documentation}{19}{subsection.3.4.3}}
\newlabel{classMMA8451Q_a57af776aca0948777c36bda29d80430a}{{3.4.3}{19}{Member Function Documentation}{subsection.3.4.3}{}}
\@writefile{toc}{\contentsline {subsubsection}{\numberline {3.4.3.1}enableInterrupt()}{19}{subsubsection.3.4.3.1}}
\newlabel{classMMA8451Q_a191a1e895c0804344be7b83e2d7ae69b}{{3.4.3.1}{19}{\texorpdfstring {enableInterrupt()}{enableInterrupt()}}{table.3.20}{}}
\@writefile{toc}{\contentsline {subsubsection}{\numberline {3.4.3.2}enableTabDetection()}{19}{subsubsection.3.4.3.2}}
\newlabel{classMMA8451Q_ab5f585c83d19e520c0363d074717ce71}{{3.4.3.2}{19}{\texorpdfstring {enableTabDetection()}{enableTabDetection()}}{subsubsection.3.4.3.2}{}}
\gdef \LT@xxi {\LT@entry 
    {3}{36.8025pt}\LT@entry 
    {3}{251.57896pt}}
\@writefile{toc}{\contentsline {subsubsection}{\numberline {3.4.3.3}getAccAllAxis()}{20}{subsubsection.3.4.3.3}}
\newlabel{classMMA8451Q_a9226a2f00edef47be520ecca28d6a425}{{3.4.3.3}{20}{\texorpdfstring {getAccAllAxis()}{getAccAllAxis()}}{table.3.21}{}}
\@writefile{toc}{\contentsline {subsubsection}{\numberline {3.4.3.4}getAccX()}{20}{subsubsection.3.4.3.4}}
\newlabel{classMMA8451Q_a365e88d07f16faa9da4183f34055b4a5}{{3.4.3.4}{20}{\texorpdfstring {getAccX()}{getAccX()}}{subsubsection.3.4.3.4}{}}
\@writefile{toc}{\contentsline {subsubsection}{\numberline {3.4.3.5}getAccY()}{20}{subsubsection.3.4.3.5}}
\newlabel{classMMA8451Q_afb63783e2e4d3af92229dd0311905132}{{3.4.3.5}{20}{\texorpdfstring {getAccY()}{getAccY()}}{subsubsection.3.4.3.5}{}}
\@writefile{toc}{\contentsline {subsubsection}{\numberline {3.4.3.6}getAccZ()}{21}{subsubsection.3.4.3.6}}
\newlabel{classMMA8451Q_a6983c5abb03f7572b6e823862107871e}{{3.4.3.6}{21}{\texorpdfstring {getAccZ()}{getAccZ()}}{subsubsection.3.4.3.6}{}}
\@writefile{toc}{\contentsline {subsubsection}{\numberline {3.4.3.7}getIntSource()}{21}{subsubsection.3.4.3.7}}
\newlabel{classMMA8451Q_a9697aa8deb5950052cebc54441c04473}{{3.4.3.7}{21}{\texorpdfstring {getIntSource()}{getIntSource()}}{subsubsection.3.4.3.7}{}}
\@writefile{toc}{\contentsline {subsubsection}{\numberline {3.4.3.8}getPulseDirection()}{21}{subsubsection.3.4.3.8}}
\newlabel{classMMA8451Q_a6993ec6085d7512b42e8c66a677bbe8e}{{3.4.3.8}{21}{\texorpdfstring {getPulseDirection()}{getPulseDirection()}}{subsubsection.3.4.3.8}{}}
\@writefile{toc}{\contentsline {subsubsection}{\numberline {3.4.3.9}isConnected()}{21}{subsubsection.3.4.3.9}}
\newlabel{classMMA8451Q_af7b81374ff193e354839d27185f2b14a}{{3.4.3.9}{21}{\texorpdfstring {isConnected()}{isConnected()}}{subsubsection.3.4.3.9}{}}
\@writefile{toc}{\contentsline {subsubsection}{\numberline {3.4.3.10}registerHandlerInt()}{21}{subsubsection.3.4.3.10}}
\gdef \LT@xxii {\LT@entry 
    {3}{26.80359pt}\LT@entry 
    {3}{169.1498pt}}
\@writefile{toc}{\contentsline {section}{\numberline {3.5}R\discretionary {\unhbox \voidb@x \hbox {\relax \fontsize  {7}{8}\selectfont  $\leftarrow \joinrel  \rhook $}}{}{}E\discretionary {\unhbox \voidb@x \hbox {\relax \fontsize  {7}{8}\selectfont  $\leftarrow \joinrel  \rhook $}}{}{}C\discretionary {\unhbox \voidb@x \hbox {\relax \fontsize  {7}{8}\selectfont  $\leftarrow \joinrel  \rhook $}}{}{}\_\discretionary {\unhbox \voidb@x \hbox {\relax \fontsize  {7}{8}\selectfont  $\leftarrow \joinrel  \rhook $}}{}{}\discretionary {\unhbox \voidb@x \hbox {\relax \fontsize  {7}{8}\selectfont  $\leftarrow \joinrel  \rhook $}}{}{}P\discretionary {\unhbox \voidb@x \hbox {\relax \fontsize  {7}{8}\selectfont  $\leftarrow \joinrel  \rhook $}}{}{}A\discretionary {\unhbox \voidb@x \hbox {\relax \fontsize  {7}{8}\selectfont  $\leftarrow \joinrel  \rhook $}}{}{}C\discretionary {\unhbox \voidb@x \hbox {\relax \fontsize  {7}{8}\selectfont  $\leftarrow \joinrel  \rhook $}}{}{}K\discretionary {\unhbox \voidb@x \hbox {\relax \fontsize  {7}{8}\selectfont  $\leftarrow \joinrel  \rhook $}}{}{}E\discretionary {\unhbox \voidb@x \hbox {\relax \fontsize  {7}{8}\selectfont  $\leftarrow \joinrel  \rhook $}}{}{}T\discretionary {\unhbox \voidb@x \hbox {\relax \fontsize  {7}{8}\selectfont  $\leftarrow \joinrel  \rhook $}}{}{}\_\discretionary {\unhbox \voidb@x \hbox {\relax \fontsize  {7}{8}\selectfont  $\leftarrow \joinrel  \rhook $}}{}{}t Struct Reference}{22}{section.3.5}}
\newlabel{structREC__PACKET__t}{{3.5}{22}{R\+E\+C\+\_\+\+P\+A\+C\+K\+E\+T\+\_\+t Struct Reference}{section.3.5}{}}
\newlabel{structREC__PACKET__t_a701733ddac6279bb9ffae58c5efbcea1}{{3.5}{22}{Public Attributes}{section*.7}{}}
\newlabel{structREC__PACKET__t_a630be7b85582f0d0065fb5f9f173f157}{{3.5}{22}{Public Attributes}{section*.7}{}}
\newlabel{structREC__PACKET__t_aa8956c6f0e04c5c0b3cd26932ef9c51d}{{3.5}{22}{Public Attributes}{section*.7}{}}
\newlabel{structREC__PACKET__t_af03eb39cfb37855d31657ebb9a0e341d}{{3.5}{22}{Public Attributes}{section*.7}{}}
\newlabel{structREC__PACKET__t_a35b79437598b3635145277d261b318f5}{{3.5}{22}{Public Attributes}{section*.7}{}}
\@writefile{toc}{\contentsline {subsection}{\numberline {3.5.1}Detailed Description}{22}{subsection.3.5.1}}
\@writefile{toc}{\contentsline {section}{\numberline {3.6}S\discretionary {\unhbox \voidb@x \hbox {\relax \fontsize  {7}{8}\selectfont  $\leftarrow \joinrel  \rhook $}}{}{}H\discretionary {\unhbox \voidb@x \hbox {\relax \fontsize  {7}{8}\selectfont  $\leftarrow \joinrel  \rhook $}}{}{}A\discretionary {\unhbox \voidb@x \hbox {\relax \fontsize  {7}{8}\selectfont  $\leftarrow \joinrel  \rhook $}}{}{}R\discretionary {\unhbox \voidb@x \hbox {\relax \fontsize  {7}{8}\selectfont  $\leftarrow \joinrel  \rhook $}}{}{}E\discretionary {\unhbox \voidb@x \hbox {\relax \fontsize  {7}{8}\selectfont  $\leftarrow \joinrel  \rhook $}}{}{}D\discretionary {\unhbox \voidb@x \hbox {\relax \fontsize  {7}{8}\selectfont  $\leftarrow \joinrel  \rhook $}}{}{}\_\discretionary {\unhbox \voidb@x \hbox {\relax \fontsize  {7}{8}\selectfont  $\leftarrow \joinrel  \rhook $}}{}{}\discretionary {\unhbox \voidb@x \hbox {\relax \fontsize  {7}{8}\selectfont  $\leftarrow \joinrel  \rhook $}}{}{}D\discretionary {\unhbox \voidb@x \hbox {\relax \fontsize  {7}{8}\selectfont  $\leftarrow \joinrel  \rhook $}}{}{}A\discretionary {\unhbox \voidb@x \hbox {\relax \fontsize  {7}{8}\selectfont  $\leftarrow \joinrel  \rhook $}}{}{}T\discretionary {\unhbox \voidb@x \hbox {\relax \fontsize  {7}{8}\selectfont  $\leftarrow \joinrel  \rhook $}}{}{}A\discretionary {\unhbox \voidb@x \hbox {\relax \fontsize  {7}{8}\selectfont  $\leftarrow \joinrel  \rhook $}}{}{}\_\discretionary {\unhbox \voidb@x \hbox {\relax \fontsize  {7}{8}\selectfont  $\leftarrow \joinrel  \rhook $}}{}{}t Struct Reference}{23}{section.3.6}}
\newlabel{structSHARED__DATA__t}{{3.6}{23}{S\+H\+A\+R\+E\+D\+\_\+\+D\+A\+T\+A\+\_\+t Struct Reference}{section.3.6}{}}
\newlabel{structSHARED__DATA__t_a2165e34170a39be7463f06f2378b630a}{{3.6}{23}{Public Attributes}{section*.8}{}}
\newlabel{structSHARED__DATA__t_a440e627e1dd33cbf57046a1c5da0f30b}{{3.6}{23}{Public Attributes}{section*.8}{}}
\@writefile{toc}{\contentsline {subsection}{\numberline {3.6.1}Detailed Description}{23}{subsection.3.6.1}}
\@writefile{toc}{\contentsline {section}{\numberline {3.7}Uart Class Reference}{23}{section.3.7}}
\newlabel{classUart}{{3.7}{23}{Uart Class Reference}{section.3.7}{}}
\@writefile{toc}{\contentsline {subsection}{\numberline {3.7.1}Detailed Description}{23}{subsection.3.7.1}}
\gdef \LT@xxiii {\LT@entry 
    {3}{26.80359pt}\LT@entry 
    {3}{200.5232pt}}
\@writefile{toc}{\contentsline {subsection}{\numberline {3.7.2}Constructor \& Destructor Documentation}{24}{subsection.3.7.2}}
\newlabel{classUart_a26c855a2e1e6a5098ee0f6ce27045fc9}{{3.7.2}{24}{Constructor \& Destructor Documentation}{subsection.3.7.2}{}}
\@writefile{toc}{\contentsline {subsubsection}{\numberline {3.7.2.1}Uart()}{24}{subsubsection.3.7.2.1}}
\newlabel{classUart_a7160154094413395a23dbaa287dbef3c}{{3.7.2.1}{24}{\texorpdfstring {Uart()}{Uart()}}{table.3.23}{}}
\@writefile{toc}{\contentsline {subsubsection}{\numberline {3.7.2.2}$\sim $Uart()}{24}{subsubsection.3.7.2.2}}
\@writefile{toc}{\contentsline {subsection}{\numberline {3.7.3}Member Function Documentation}{24}{subsection.3.7.3}}
\newlabel{classUart_ab289f190a22a3788a8418c3a6ab65e87}{{3.7.3}{24}{Member Function Documentation}{subsection.3.7.3}{}}
\@writefile{toc}{\contentsline {subsubsection}{\numberline {3.7.3.1}registerRecQueue()}{24}{subsubsection.3.7.3.1}}
\gdef \LT@xxiv {\LT@entry 
    {3}{26.80359pt}\LT@entry 
    {3}{238.52023pt}}
\gdef \LT@xxv {\LT@entry 
    {3}{26.80359pt}\LT@entry 
    {3}{217.35294pt}}
\newlabel{classUart_aaedae2354a8abec1dd0d1ca811645bdd}{{3.7.3.1}{25}{\texorpdfstring {registerRecQueue()}{registerRecQueue()}}{table.3.24}{}}
\@writefile{toc}{\contentsline {subsubsection}{\numberline {3.7.3.2}sendPacket()}{25}{subsubsection.3.7.3.2}}
\@writefile{toc}{\contentsline {chapter}{\numberline {4}File Documentation}{27}{chapter.4}}
\@writefile{lof}{\addvspace {10\p@ }}
\@writefile{lot}{\addvspace {10\p@ }}
\@writefile{toc}{\contentsline {section}{\numberline {4.1}Elevator Controlling.\discretionary {\unhbox \voidb@x \hbox {\relax \fontsize  {7}{8}\selectfont  $\leftarrow \joinrel  \rhook $}}{}{}cpp File Reference}{27}{section.4.1}}
\newlabel{Elevator_01Controlling_8cpp}{{4.1}{27}{Elevator Controlling.\+cpp File Reference}{section.4.1}{}}
\newlabel{Elevator_01Controlling_8cpp_a4cc32f2cf4c2e4770674d091da1c3666}{{4.1}{27}{Macros}{section*.11}{}}
\newlabel{Elevator_01Controlling_8cpp_a17f69ae111921fc1420c4f881a39ec02}{{4.1}{27}{Variables}{section*.13}{}}
\@writefile{toc}{\contentsline {subsection}{\numberline {4.1.1}Detailed Description}{28}{subsection.4.1.1}}
\@writefile{toc}{\contentsline {subsection}{\numberline {4.1.2}Function Documentation}{28}{subsection.4.1.2}}
\newlabel{Elevator_01Controlling_8cpp_af73bb2c58763ba3fd42fe89dc8470567}{{4.1.2}{28}{Function Documentation}{subsection.4.1.2}{}}
\@writefile{toc}{\contentsline {subsubsection}{\numberline {4.1.2.1}accelIntHandler()}{28}{subsubsection.4.1.2.1}}
\newlabel{Elevator_01Controlling_8cpp_a840291bc02cba5474a4cb46a9b9566fe}{{4.1.2.1}{28}{\texorpdfstring {accelIntHandler()}{accelIntHandler()}}{subsubsection.4.1.2.1}{}}
\@writefile{toc}{\contentsline {subsubsection}{\numberline {4.1.2.2}main()}{28}{subsubsection.4.1.2.2}}
\@writefile{toc}{\contentsline {section}{\numberline {4.2}inc/\discretionary {\unhbox \voidb@x \hbox {\relax \fontsize  {7}{8}\selectfont  $\leftarrow \joinrel  \rhook $}}{}{}Crc.h File Reference}{28}{section.4.2}}
\newlabel{Crc_8h}{{4.2}{28}{inc/\+Crc.h File Reference}{section.4.2}{}}
\@writefile{toc}{\contentsline {subsection}{\numberline {4.2.1}Detailed Description}{29}{subsection.4.2.1}}
\@writefile{toc}{\contentsline {section}{\numberline {4.3}inc/defines\discretionary {\unhbox \voidb@x \hbox {\relax \fontsize  {7}{8}\selectfont  $\leftarrow \joinrel  \rhook $}}{}{}R\discretionary {\unhbox \voidb@x \hbox {\relax \fontsize  {7}{8}\selectfont  $\leftarrow \joinrel  \rhook $}}{}{}T\discretionary {\unhbox \voidb@x \hbox {\relax \fontsize  {7}{8}\selectfont  $\leftarrow \joinrel  \rhook $}}{}{}OS.h File Reference}{29}{section.4.3}}
\newlabel{definesRTOS_8h}{{4.3}{29}{inc/defines\+R\+T\+OS.h File Reference}{section.4.3}{}}
\newlabel{definesRTOS_8h_a05f32d93beed42493d42673152b4579f}{{4.3}{29}{Macros}{section*.15}{}}
\newlabel{definesRTOS_8h_a752e14012e3ce75f70745919b72ca6e3}{{4.3}{29}{Macros}{section*.15}{}}
\newlabel{definesRTOS_8h_aac2613ad2291a9bb3ae7adc02dc29c8d}{{4.3}{29}{Macros}{section*.15}{}}
\newlabel{definesRTOS_8h_a93921d3292005836714afe15fad7d078}{{4.3}{29}{Macros}{section*.15}{}}
\newlabel{definesRTOS_8h_ac61030e60771e215deba5d5122f0d30d}{{4.3}{29}{Macros}{section*.15}{}}
\newlabel{definesRTOS_8h_aada6c2739ffd7966cee7bc08b00684e3}{{4.3}{29}{Macros}{section*.15}{}}
\newlabel{definesRTOS_8h_a3b128c99e01cf47b2689ca77e5a2a965}{{4.3}{29}{Macros}{section*.15}{}}
\newlabel{definesRTOS_8h_a754f5ff668f7161e34d33e7ab8211ba4}{{4.3}{29}{Macros}{section*.15}{}}
\newlabel{definesRTOS_8h_a1cf95fba9960bcd8a6bf9725c94f9cd0}{{4.3}{29}{Macros}{section*.15}{}}
\newlabel{definesRTOS_8h_abc296af761ddb1b0fb58db1cf8176af5}{{4.3}{29}{Macros}{section*.15}{}}
\newlabel{definesRTOS_8h_a464eee0e852bac5e479a2e2f05b05184}{{4.3}{29}{Macros}{section*.15}{}}
\newlabel{definesRTOS_8h_a5a50c304bdd9e66032df79cfea02fb35}{{4.3}{30}{Macros}{section*.15}{}}
\newlabel{definesRTOS_8h_aefe6ebf3157d2b772e08ac33c0f1ff39}{{4.3}{30}{Macros}{section*.15}{}}
\newlabel{definesRTOS_8h_a82cd9c875afcce9e03f6d43c2152c128}{{4.3}{30}{Macros}{section*.15}{}}
\newlabel{definesRTOS_8h_aaa83899944f6f82e52db966ac7547241}{{4.3}{30}{Macros}{section*.15}{}}
\newlabel{definesRTOS_8h_a0d4a45d71af25b41a73da91818fa3f79}{{4.3}{30}{Macros}{section*.15}{}}
\newlabel{definesRTOS_8h_a091474cb9e6b3c7faf4884354fcb8461}{{4.3}{30}{Macros}{section*.15}{}}
\newlabel{definesRTOS_8h_af3c473455586d87c325735ef0702c446}{{4.3}{30}{Macros}{section*.15}{}}
\newlabel{definesRTOS_8h_adb1affaf684c503a87433bc1b17c6a3f}{{4.3}{30}{Macros}{section*.15}{}}
\@writefile{toc}{\contentsline {subsection}{\numberline {4.3.1}Detailed Description}{30}{subsection.4.3.1}}
\@writefile{toc}{\contentsline {section}{\numberline {4.4}inc/\discretionary {\unhbox \voidb@x \hbox {\relax \fontsize  {7}{8}\selectfont  $\leftarrow \joinrel  \rhook $}}{}{}Elevator.h File Reference}{30}{section.4.4}}
\newlabel{Elevator_8h}{{4.4}{30}{inc/\+Elevator.h File Reference}{section.4.4}{}}
\newlabel{Elevator_8h_a38a196d020f78f178a33927d741a03f2}{{4.4}{30}{Macros}{section*.17}{}}
\gdef \LT@xxvi {\LT@entry 
    {3}{113.81433pt}\LT@entry 
    {3}{156.87376pt}}
\newlabel{Elevator_8h_a66289eb077ac8e91c2f0b9c0d7e3e653}{{4.4}{31}{Enumerations}{section*.18}{}}
\newlabel{Elevator_8h_a4b03d69cb81cea28873c61d87d9ff466}{{4.4}{31}{Enumerations}{section*.18}{}}
\@writefile{toc}{\contentsline {subsection}{\numberline {4.4.1}Detailed Description}{31}{subsection.4.4.1}}
\@writefile{toc}{\contentsline {subsection}{\numberline {4.4.2}Enumeration Type Documentation}{31}{subsection.4.4.2}}
\newlabel{Elevator_8h_af4a24bc5320cf4cab2fbc868cd59fa25}{{4.4.2}{31}{Enumeration Type Documentation}{subsection.4.4.2}{}}
\@writefile{toc}{\contentsline {subsubsection}{\numberline {4.4.2.1}LIFT\_FLOOR}{31}{subsubsection.4.4.2.1}}
\newlabel{Elevator_8h_af4a24bc5320cf4cab2fbc868cd59fa25a6c7a07cd9a73d63e102e4bc06b79b23e}{{4.1}{31}{\texorpdfstring {LIFT\_FLOOR}{LIFT\_FLOOR}}{table.4.1}{}}
\newlabel{Elevator_8h_af4a24bc5320cf4cab2fbc868cd59fa25a545045ddd4e0e4e18ae6b1b7e4c5f825}{{4.1}{31}{\texorpdfstring {LIFT\_FLOOR}{LIFT\_FLOOR}}{table.4.1}{}}
\newlabel{Elevator_8h_af4a24bc5320cf4cab2fbc868cd59fa25aa1091247dd00a6c252b76abb82995b84}{{4.1}{31}{\texorpdfstring {LIFT\_FLOOR}{LIFT\_FLOOR}}{table.4.1}{}}
\newlabel{Elevator_8h_af4a24bc5320cf4cab2fbc868cd59fa25a7511f408b1d4eff0cd7d404c259e6444}{{4.1}{31}{\texorpdfstring {LIFT\_FLOOR}{LIFT\_FLOOR}}{table.4.1}{}}
\newlabel{Elevator_8h_af4a24bc5320cf4cab2fbc868cd59fa25ae64bc220ea100c8847dbc3a390bd5259}{{4.1}{31}{\texorpdfstring {LIFT\_FLOOR}{LIFT\_FLOOR}}{table.4.1}{}}
\newlabel{Elevator_8h_af4a24bc5320cf4cab2fbc868cd59fa25a595a6904aecf11f42bbe5547542ca86a}{{4.1}{31}{\texorpdfstring {LIFT\_FLOOR}{LIFT\_FLOOR}}{table.4.1}{}}
\newlabel{Elevator_8h_af3b6a1a91b868b96b7a7f161706d17ec}{{4.4.2.1}{31}{\texorpdfstring {LIFT\_FLOOR}{LIFT\_FLOOR}}{table.4.1}{}}
\gdef \LT@xxvii {\LT@entry 
    {3}{110.80826pt}\LT@entry 
    {3}{130.67552pt}}
\@writefile{toc}{\contentsline {subsubsection}{\numberline {4.4.2.2}SENSOR\_STATE}{32}{subsubsection.4.4.2.2}}
\newlabel{Elevator_8h_af3b6a1a91b868b96b7a7f161706d17eca717bb5e8b5d3192061d87c54e0c172fd}{{4.2}{32}{\texorpdfstring {SENSOR\_STATE}{SENSOR\_STATE}}{table.4.2}{}}
\newlabel{Elevator_8h_af3b6a1a91b868b96b7a7f161706d17eca402c938783b707408d67ca5960017ae3}{{4.2}{32}{\texorpdfstring {SENSOR\_STATE}{SENSOR\_STATE}}{table.4.2}{}}
\newlabel{Elevator_8h_af3b6a1a91b868b96b7a7f161706d17ecabf3b8f5be812a703c7dda2ab7aa2e0b3}{{4.2}{32}{\texorpdfstring {SENSOR\_STATE}{SENSOR\_STATE}}{table.4.2}{}}
\@writefile{toc}{\contentsline {section}{\numberline {4.5}inc/\discretionary {\unhbox \voidb@x \hbox {\relax \fontsize  {7}{8}\selectfont  $\leftarrow \joinrel  \rhook $}}{}{}I2c.h File Reference}{32}{section.4.5}}
\newlabel{I2c_8h}{{4.5}{32}{inc/\+I2c.h File Reference}{section.4.5}{}}
\@writefile{toc}{\contentsline {subsection}{\numberline {4.5.1}Detailed Description}{32}{subsection.4.5.1}}
\@writefile{toc}{\contentsline {section}{\numberline {4.6}inc/\discretionary {\unhbox \voidb@x \hbox {\relax \fontsize  {7}{8}\selectfont  $\leftarrow \joinrel  \rhook $}}{}{}M\discretionary {\unhbox \voidb@x \hbox {\relax \fontsize  {7}{8}\selectfont  $\leftarrow \joinrel  \rhook $}}{}{}M\discretionary {\unhbox \voidb@x \hbox {\relax \fontsize  {7}{8}\selectfont  $\leftarrow \joinrel  \rhook $}}{}{}A8451Q.h File Reference}{32}{section.4.6}}
\newlabel{MMA8451Q_8h}{{4.6}{32}{inc/\+M\+M\+A8451Q.h File Reference}{section.4.6}{}}
\@writefile{toc}{\contentsline {subsection}{\numberline {4.6.1}Detailed Description}{33}{subsection.4.6.1}}
\@writefile{toc}{\contentsline {section}{\numberline {4.7}inc/my\discretionary {\unhbox \voidb@x \hbox {\relax \fontsize  {7}{8}\selectfont  $\leftarrow \joinrel  \rhook $}}{}{}Tasks.h File Reference}{33}{section.4.7}}
\newlabel{myTasks_8h}{{4.7}{33}{inc/my\+Tasks.h File Reference}{section.4.7}{}}
\newlabel{myTasks_8h_a92f6f9fe7195c2d75f7e58fdd8833599}{{4.7}{33}{Variables}{section*.22}{}}
\newlabel{myTasks_8h_a5e46db2e45d4eb72cb346cc6799c5873}{{4.7}{33}{Variables}{section*.22}{}}
\gdef \LT@xxviii {\LT@entry 
    {3}{26.80359pt}\LT@entry 
    {3}{229.49332pt}}
\gdef \LT@xxix {\LT@entry 
    {3}{26.80359pt}\LT@entry 
    {3}{229.49332pt}}
\@writefile{toc}{\contentsline {subsection}{\numberline {4.7.1}Detailed Description}{34}{subsection.4.7.1}}
\@writefile{toc}{\contentsline {subsection}{\numberline {4.7.2}Function Documentation}{34}{subsection.4.7.2}}
\newlabel{myTasks_8h_a114f2a91f04e437b6bfeb3ae9004a26c}{{4.7.2}{34}{Function Documentation}{subsection.4.7.2}{}}
\@writefile{toc}{\contentsline {subsubsection}{\numberline {4.7.2.1}blinkerTask()}{34}{subsubsection.4.7.2.1}}
\newlabel{myTasks_8h_acf0dd96239c5ddd2d524435b81e2ea8a}{{4.7.2.1}{34}{\texorpdfstring {blinkerTask()}{blinkerTask()}}{table.4.3}{}}
\@writefile{toc}{\contentsline {subsubsection}{\numberline {4.7.2.2}emergencyTask()}{34}{subsubsection.4.7.2.2}}
\newlabel{myTasks_8h_a241353bcf343b87e35167dc7c71ca93d}{{4.7.2.2}{34}{\texorpdfstring {emergencyTask()}{emergencyTask()}}{table.4.4}{}}
\gdef \LT@xxx {\LT@entry 
    {3}{26.80359pt}\LT@entry 
    {3}{229.49332pt}}
\gdef \LT@xxxi {\LT@entry 
    {3}{26.80359pt}\LT@entry 
    {3}{229.49332pt}}
\gdef \LT@xxxii {\LT@entry 
    {3}{26.80359pt}\LT@entry 
    {3}{229.49332pt}}
\@writefile{toc}{\contentsline {subsubsection}{\numberline {4.7.2.3}floorDiplayTask()}{35}{subsubsection.4.7.2.3}}
\newlabel{myTasks_8h_af8a08f2df44c35d5a084a63b76da1e42}{{4.7.2.3}{35}{\texorpdfstring {floorDiplayTask()}{floorDiplayTask()}}{table.4.5}{}}
\@writefile{toc}{\contentsline {subsubsection}{\numberline {4.7.2.4}inputTask()}{35}{subsubsection.4.7.2.4}}
\newlabel{myTasks_8h_a20268b75253a39f01a128879b3c1a7bc}{{4.7.2.4}{35}{\texorpdfstring {inputTask()}{inputTask()}}{table.4.6}{}}
\@writefile{toc}{\contentsline {subsubsection}{\numberline {4.7.2.5}movementTask()}{35}{subsubsection.4.7.2.5}}
\newlabel{myTasks_8h_a7e90969cf8141564e3853655631c35b7}{{4.7.2.5}{35}{\texorpdfstring {movementTask()}{movementTask()}}{table.4.7}{}}
\@writefile{toc}{\contentsline {subsubsection}{\numberline {4.7.2.6}testTask()}{35}{subsubsection.4.7.2.6}}
\gdef \LT@xxxiii {\LT@entry 
    {3}{26.80359pt}\LT@entry 
    {3}{229.49332pt}}
\gdef \LT@xxxiv {\LT@entry 
    {3}{26.80359pt}\LT@entry 
    {3}{229.49332pt}}
\newlabel{myTasks_8h_a8cc6ecae5b915d449d26e566fe8261ba}{{4.7.2.6}{37}{\texorpdfstring {testTask()}{testTask()}}{table.4.8}{}}
\@writefile{toc}{\contentsline {subsubsection}{\numberline {4.7.2.7}watchDogTask()}{37}{subsubsection.4.7.2.7}}
\@writefile{toc}{\contentsline {section}{\numberline {4.8}inc/\discretionary {\unhbox \voidb@x \hbox {\relax \fontsize  {7}{8}\selectfont  $\leftarrow \joinrel  \rhook $}}{}{}Uart.h File Reference}{37}{section.4.8}}
\newlabel{Uart_8h}{{4.8}{37}{inc/\+Uart.h File Reference}{section.4.8}{}}
\newlabel{Uart_8h_a8a172dc8da48ad20120e7a861682c32f}{{4.8}{37}{Macros}{section*.24}{}}
\newlabel{Uart_8h_a973c680573b37fc359fc68d0707da355}{{4.8}{37}{Macros}{section*.24}{}}
\@writefile{toc}{\contentsline {subsection}{\numberline {4.8.1}Detailed Description}{38}{subsection.4.8.1}}
\@writefile{toc}{\contentsline {section}{\numberline {4.9}mtb.\discretionary {\unhbox \voidb@x \hbox {\relax \fontsize  {7}{8}\selectfont  $\leftarrow \joinrel  \rhook $}}{}{}c File Reference}{38}{section.4.9}}
\newlabel{mtb_8c}{{4.9}{38}{mtb.\+c File Reference}{section.4.9}{}}
\newlabel{mtb_8c_a280fa7ef27831d752a5f4f6e86f422b7}{{4.9}{38}{Macros}{section*.25}{}}
\newlabel{mtb_8c_ae3852ed507241629720fff28c5acc2fa}{{4.9}{38}{Functions}{section*.26}{}}
\@writefile{toc}{\contentsline {subsection}{\numberline {4.9.1}Detailed Description}{38}{subsection.4.9.1}}
\@writefile{toc}{\contentsline {section}{\numberline {4.10}src/\discretionary {\unhbox \voidb@x \hbox {\relax \fontsize  {7}{8}\selectfont  $\leftarrow \joinrel  \rhook $}}{}{}Crc.cpp File Reference}{38}{section.4.10}}
\newlabel{Crc_8cpp}{{4.10}{38}{src/\+Crc.cpp File Reference}{section.4.10}{}}
\@writefile{toc}{\contentsline {subsection}{\numberline {4.10.1}Detailed Description}{39}{subsection.4.10.1}}
\@writefile{toc}{\contentsline {section}{\numberline {4.11}src/\discretionary {\unhbox \voidb@x \hbox {\relax \fontsize  {7}{8}\selectfont  $\leftarrow \joinrel  \rhook $}}{}{}Elevator.cpp File Reference}{39}{section.4.11}}
\newlabel{Elevator_8cpp}{{4.11}{39}{src/\+Elevator.cpp File Reference}{section.4.11}{}}
\@writefile{toc}{\contentsline {subsection}{\numberline {4.11.1}Detailed Description}{39}{subsection.4.11.1}}
\@writefile{toc}{\contentsline {section}{\numberline {4.12}src/\discretionary {\unhbox \voidb@x \hbox {\relax \fontsize  {7}{8}\selectfont  $\leftarrow \joinrel  \rhook $}}{}{}I2c.cpp File Reference}{39}{section.4.12}}
\newlabel{I2c_8cpp}{{4.12}{39}{src/\+I2c.cpp File Reference}{section.4.12}{}}
\@writefile{toc}{\contentsline {subsection}{\numberline {4.12.1}Detailed Description}{39}{subsection.4.12.1}}
\@writefile{toc}{\contentsline {section}{\numberline {4.13}src/\discretionary {\unhbox \voidb@x \hbox {\relax \fontsize  {7}{8}\selectfont  $\leftarrow \joinrel  \rhook $}}{}{}M\discretionary {\unhbox \voidb@x \hbox {\relax \fontsize  {7}{8}\selectfont  $\leftarrow \joinrel  \rhook $}}{}{}M\discretionary {\unhbox \voidb@x \hbox {\relax \fontsize  {7}{8}\selectfont  $\leftarrow \joinrel  \rhook $}}{}{}A8451Q.cpp File Reference}{40}{section.4.13}}
\newlabel{MMA8451Q_8cpp}{{4.13}{40}{src/\+M\+M\+A8451Q.cpp File Reference}{section.4.13}{}}
\newlabel{MMA8451Q_8cpp_a796b386fcc745d30f9ccbdd324d1184c}{{4.13}{40}{Macros}{section*.27}{}}
\newlabel{MMA8451Q_8cpp_a73f4728dfb5c82afcea7bee729af205c}{{4.13}{40}{Macros}{section*.27}{}}
\newlabel{MMA8451Q_8cpp_aeafec231eb5fb0fe07cd33a9e7813574}{{4.13}{40}{Macros}{section*.27}{}}
\newlabel{MMA8451Q_8cpp_a1d7a3e7b7268c6774451fffd06b76a8e}{{4.13}{40}{Macros}{section*.27}{}}
\newlabel{MMA8451Q_8cpp_ab38dc0ac4800e05977f0f81c5a02ce10}{{4.13}{40}{Macros}{section*.27}{}}
\newlabel{MMA8451Q_8cpp_a9d651c94b25db856596951148e1b03eb}{{4.13}{40}{Macros}{section*.27}{}}
\newlabel{MMA8451Q_8cpp_a4ae974fc576d6a7b453e23d5db55f950}{{4.13}{40}{Macros}{section*.27}{}}
\newlabel{MMA8451Q_8cpp_a62c3fcf167c1c4188b03bf6db3ab7412}{{4.13}{40}{Macros}{section*.27}{}}
\newlabel{MMA8451Q_8cpp_a21e89c10c4c5073a96fb4c8cffb2236d}{{4.13}{40}{Macros}{section*.27}{}}
\newlabel{MMA8451Q_8cpp_a1861315e9b10c812a2b124903ec919a9}{{4.13}{40}{Macros}{section*.27}{}}
\newlabel{MMA8451Q_8cpp_a333108a5f8f46552a24dc9375aeff40f}{{4.13}{40}{Macros}{section*.27}{}}
\newlabel{MMA8451Q_8cpp_a79ec31e4dd1b4e3656ad89f0a27bf94a}{{4.13}{40}{Macros}{section*.27}{}}
\newlabel{MMA8451Q_8cpp_aecf06d58c88afa92fb5a5a57ee891aa0}{{4.13}{40}{Macros}{section*.27}{}}
\newlabel{MMA8451Q_8cpp_accce775b040a8536f173252324091ea1}{{4.13}{40}{Macros}{section*.27}{}}
\newlabel{MMA8451Q_8cpp_a52f832b59426037f9c02a6d0b23665d4}{{4.13}{40}{Macros}{section*.27}{}}
\newlabel{MMA8451Q_8cpp_ae6c2e13e6dd99c68dd5c1430450e11bd}{{4.13}{40}{Macros}{section*.27}{}}
\newlabel{MMA8451Q_8cpp_a37e700f3564c50daa6679965494b3e9a}{{4.13}{40}{Macros}{section*.27}{}}
\newlabel{MMA8451Q_8cpp_a7c1918e0bb064088949a197ecf218e0e}{{4.13}{40}{Macros}{section*.27}{}}
\newlabel{MMA8451Q_8cpp_a43131a56c7f836a9c432d4b5d172511c}{{4.13}{40}{Macros}{section*.27}{}}
\newlabel{MMA8451Q_8cpp_a8bfaefabc1c207be4b1d40c50aced35f}{{4.13}{40}{Macros}{section*.27}{}}
\newlabel{MMA8451Q_8cpp_a0bbff74308700755c1b43084dc37c617}{{4.13}{40}{Macros}{section*.27}{}}
\newlabel{MMA8451Q_8cpp_ad3e053ca9c876f7ce844b9606d6a5a63}{{4.13}{40}{Macros}{section*.27}{}}
\newlabel{MMA8451Q_8cpp_ae9287588c0bda839f7494fe2d4ad1d17}{{4.13}{40}{Macros}{section*.27}{}}
\newlabel{MMA8451Q_8cpp_a43f397cf70b4743e179472ec971b3251}{{4.13}{40}{Macros}{section*.27}{}}
\newlabel{MMA8451Q_8cpp_a2fea7a24b2dbc326f0ce13c2686d48ab}{{4.13}{40}{Macros}{section*.27}{}}
\newlabel{MMA8451Q_8cpp_a1e586e8fe5f309c043034a27f351e9ff}{{4.13}{40}{Macros}{section*.27}{}}
\newlabel{MMA8451Q_8cpp_a693a16f949dd2d29a42fd0b8789467ee}{{4.13}{40}{Macros}{section*.27}{}}
\newlabel{MMA8451Q_8cpp_ad340b934a236f98eba52ce0ce6350d7e}{{4.13}{40}{Macros}{section*.27}{}}
\newlabel{MMA8451Q_8cpp_aeb905e61be1fef12fc9ea55248268a93}{{4.13}{40}{Macros}{section*.27}{}}
\newlabel{MMA8451Q_8cpp_a502dc456032dc6e00fcffafda1b9bfc9}{{4.13}{40}{Macros}{section*.27}{}}
\newlabel{MMA8451Q_8cpp_a9c3dce49a9f75385e9f06d05ddaa14f8}{{4.13}{40}{Macros}{section*.27}{}}
\newlabel{MMA8451Q_8cpp_a8c9cff9392610a17a25b1faa209096b2}{{4.13}{40}{Macros}{section*.27}{}}
\newlabel{MMA8451Q_8cpp_a4a5ccb9756484b4f2fc20a298c830397}{{4.13}{40}{Macros}{section*.27}{}}
\newlabel{MMA8451Q_8cpp_a3d9fea1c2c8c88e8a40a35df20c1d92e}{{4.13}{40}{Macros}{section*.27}{}}
\newlabel{MMA8451Q_8cpp_af9b9e67664760329316682a2245f6430}{{4.13}{40}{Macros}{section*.27}{}}
\newlabel{MMA8451Q_8cpp_a7bb2a0c78ec084975bccc12356548ac1}{{4.13}{40}{Macros}{section*.27}{}}
\newlabel{MMA8451Q_8cpp_ab5bcaa5d7636383090b8eba547a65d81}{{4.13}{41}{Variables}{section*.29}{}}
\@writefile{toc}{\contentsline {subsection}{\numberline {4.13.1}Detailed Description}{41}{subsection.4.13.1}}
\@writefile{toc}{\contentsline {subsection}{\numberline {4.13.2}Function Documentation}{41}{subsection.4.13.2}}
\newlabel{MMA8451Q_8cpp_ae01b365de69142666b470757d24fae84}{{4.13.2}{41}{Function Documentation}{subsection.4.13.2}{}}
\@writefile{toc}{\contentsline {subsubsection}{\numberline {4.13.2.1}PORTA\_IRQHandler()}{41}{subsubsection.4.13.2.1}}
\@writefile{toc}{\contentsline {section}{\numberline {4.14}src/my\discretionary {\unhbox \voidb@x \hbox {\relax \fontsize  {7}{8}\selectfont  $\leftarrow \joinrel  \rhook $}}{}{}Tasks.cpp File Reference}{41}{section.4.14}}
\newlabel{myTasks_8cpp}{{4.14}{41}{src/my\+Tasks.cpp File Reference}{section.4.14}{}}
\newlabel{myTasks_8cpp_a3a778964c0c2db864a89663bedd18c11}{{4.14}{42}{Variables}{section*.31}{}}
\newlabel{myTasks_8cpp_a7814faf265c26ac9cb92ab6fbde64a7f}{{4.14}{42}{Variables}{section*.31}{}}
\newlabel{myTasks_8cpp_a2365e504993d06a038e05916dd8acc81}{{4.14}{42}{Variables}{section*.31}{}}
\newlabel{myTasks_8cpp_aed1e9336f8ef3ba0406c15aacc7f2d48}{{4.14}{42}{Variables}{section*.31}{}}
\gdef \LT@xxxv {\LT@entry 
    {3}{26.80359pt}\LT@entry 
    {3}{214.49982pt}}
\newlabel{myTasks_8cpp_a166e8be86c5046128695e7f3cf32a0cf}{{4.14}{43}{Variables}{section*.31}{}}
\newlabel{myTasks_8cpp_aa824778e271c18a42660211aaf91daef}{{4.14}{43}{Variables}{section*.31}{}}
\newlabel{myTasks_8cpp_a92f6f9fe7195c2d75f7e58fdd8833599}{{4.14}{43}{Variables}{section*.31}{}}
\newlabel{myTasks_8cpp_a5e46db2e45d4eb72cb346cc6799c5873}{{4.14}{43}{Variables}{section*.31}{}}
\newlabel{myTasks_8cpp_a953382e188431177333f3e564e37bc2a}{{4.14}{43}{Variables}{section*.31}{}}
\newlabel{myTasks_8cpp_a5ae5f6a32b9425cf555edf56d1a54c23}{{4.14}{43}{Variables}{section*.31}{}}
\newlabel{myTasks_8cpp_a6ef5c770a833953a755020f2b40e449e}{{4.14}{43}{Variables}{section*.31}{}}
\newlabel{myTasks_8cpp_a0dbb5a7662a5dc261eeb8c403ac69b0b}{{4.14}{43}{Variables}{section*.31}{}}
\newlabel{myTasks_8cpp_a74ce176230ca967f989d2fb55c6063ec}{{4.14}{43}{Variables}{section*.31}{}}
\@writefile{toc}{\contentsline {subsection}{\numberline {4.14.1}Detailed Description}{43}{subsection.4.14.1}}
\@writefile{toc}{\contentsline {subsection}{\numberline {4.14.2}Function Documentation}{43}{subsection.4.14.2}}
\newlabel{myTasks_8cpp_ac47b3ab43e9d4f5687c6587764b90f4c}{{4.14.2}{43}{Function Documentation}{subsection.4.14.2}{}}
\@writefile{toc}{\contentsline {subsubsection}{\numberline {4.14.2.1}arrivedToFloor()}{43}{subsubsection.4.14.2.1}}
\gdef \LT@xxxvi {\LT@entry 
    {3}{26.80359pt}\LT@entry 
    {3}{229.49332pt}}
\gdef \LT@xxxvii {\LT@entry 
    {3}{36.8025pt}\LT@entry 
    {3}{263.2787pt}}
\newlabel{myTasks_8cpp_a114f2a91f04e437b6bfeb3ae9004a26c}{{4.14.2.1}{44}{\texorpdfstring {arrivedToFloor()}{arrivedToFloor()}}{table.4.10}{}}
\@writefile{toc}{\contentsline {subsubsection}{\numberline {4.14.2.2}blinkerTask()}{44}{subsubsection.4.14.2.2}}
\newlabel{myTasks_8cpp_a2a9879cc1a88d6f74ba469d7c29bc9a8}{{4.14.2.2}{44}{\texorpdfstring {blinkerTask()}{blinkerTask()}}{table.4.11}{}}
\@writefile{toc}{\contentsline {subsubsection}{\numberline {4.14.2.3}choooseNextFloor()}{44}{subsubsection.4.14.2.3}}
\newlabel{myTasks_8cpp_af33a90df8ddbd8100713bd75e9c3c4b4}{{4.14.2.3}{44}{\texorpdfstring {choooseNextFloor()}{choooseNextFloor()}}{table.4.12}{}}
\@writefile{toc}{\contentsline {subsubsection}{\numberline {4.14.2.4}elevatorIddle()}{44}{subsubsection.4.14.2.4}}
\newlabel{myTasks_8cpp_acf0dd96239c5ddd2d524435b81e2ea8a}{{4.14.2.4}{44}{\texorpdfstring {elevatorIddle()}{elevatorIddle()}}{subsubsection.4.14.2.4}{}}
\gdef \LT@xxxviii {\LT@entry 
    {3}{26.80359pt}\LT@entry 
    {3}{229.49332pt}}
\gdef \LT@xxxix {\LT@entry 
    {3}{36.8025pt}\LT@entry 
    {3}{359.09058pt}}
\gdef \LT@xl {\LT@entry 
    {3}{26.80359pt}\LT@entry 
    {3}{229.49332pt}}
\@writefile{toc}{\contentsline {subsubsection}{\numberline {4.14.2.5}emergencyTask()}{45}{subsubsection.4.14.2.5}}
\newlabel{myTasks_8cpp_aab168938cdf8c15a6bdef83b389b0656}{{4.14.2.5}{45}{\texorpdfstring {emergencyTask()}{emergencyTask()}}{table.4.13}{}}
\@writefile{toc}{\contentsline {subsubsection}{\numberline {4.14.2.6}findElevator()}{45}{subsubsection.4.14.2.6}}
\newlabel{myTasks_8cpp_a241353bcf343b87e35167dc7c71ca93d}{{4.14.2.6}{45}{\texorpdfstring {findElevator()}{findElevator()}}{table.4.14}{}}
\@writefile{toc}{\contentsline {subsubsection}{\numberline {4.14.2.7}floorDiplayTask()}{45}{subsubsection.4.14.2.7}}
\newlabel{myTasks_8cpp_aa97bc76e99c4f2aaa7e6460adf3ed0e1}{{4.14.2.7}{45}{\texorpdfstring {floorDiplayTask()}{floorDiplayTask()}}{table.4.15}{}}
\@writefile{toc}{\contentsline {subsubsection}{\numberline {4.14.2.8}getCurrentFloor()}{45}{subsubsection.4.14.2.8}}
\gdef \LT@xli {\LT@entry 
    {3}{36.8025pt}\LT@entry 
    {3}{243.02896pt}}
\gdef \LT@xlii {\LT@entry 
    {3}{26.80359pt}\LT@entry 
    {3}{229.49332pt}}
\gdef \LT@xliii {\LT@entry 
    {3}{26.80359pt}\LT@entry 
    {3}{248.195pt}}
\newlabel{myTasks_8cpp_af8a08f2df44c35d5a084a63b76da1e42}{{4.14.2.8}{46}{\texorpdfstring {getCurrentFloor()}{getCurrentFloor()}}{table.4.16}{}}
\@writefile{toc}{\contentsline {subsubsection}{\numberline {4.14.2.9}inputTask()}{46}{subsubsection.4.14.2.9}}
\newlabel{myTasks_8cpp_a6738a8b756cda635a1612c381257ab37}{{4.14.2.9}{46}{\texorpdfstring {inputTask()}{inputTask()}}{table.4.17}{}}
\@writefile{toc}{\contentsline {subsubsection}{\numberline {4.14.2.10}moveElevator()}{46}{subsubsection.4.14.2.10}}
\newlabel{myTasks_8cpp_a20268b75253a39f01a128879b3c1a7bc}{{4.14.2.10}{46}{\texorpdfstring {moveElevator()}{moveElevator()}}{table.4.18}{}}
\@writefile{toc}{\contentsline {subsubsection}{\numberline {4.14.2.11}movementTask()}{46}{subsubsection.4.14.2.11}}
\gdef \LT@xliv {\LT@entry 
    {3}{26.80359pt}\LT@entry 
    {3}{229.49332pt}}
\gdef \LT@xlv {\LT@entry 
    {3}{36.8025pt}\LT@entry 
    {3}{231.52725pt}}
\gdef \LT@xlvi {\LT@entry 
    {3}{26.80359pt}\LT@entry 
    {3}{227.3514pt}}
\newlabel{myTasks_8cpp_ae67d76af47d19ee04f7cf44c7ce33950}{{4.14.2.11}{47}{\texorpdfstring {movementTask()}{movementTask()}}{table.4.19}{}}
\@writefile{toc}{\contentsline {subsubsection}{\numberline {4.14.2.12}repairBadStop()}{47}{subsubsection.4.14.2.12}}
\newlabel{myTasks_8cpp_a45af47623b4e3570e753567fdec9a6ed}{{4.14.2.12}{47}{\texorpdfstring {repairBadStop()}{repairBadStop()}}{table.4.20}{}}
\@writefile{toc}{\contentsline {subsubsection}{\numberline {4.14.2.13}sensorSignalReceived()}{47}{subsubsection.4.14.2.13}}
\newlabel{myTasks_8cpp_afa9de68d649f4dad7e6fc974defdea28}{{4.14.2.13}{47}{\texorpdfstring {sensorSignalReceived()}{sensorSignalReceived()}}{table.4.21}{}}
\@writefile{toc}{\contentsline {subsubsection}{\numberline {4.14.2.14}slowElevatorDown()}{47}{subsubsection.4.14.2.14}}
\newlabel{myTasks_8cpp_a59880d0c1e46eabf3aba586205fb0ac8}{{4.14.2.14}{47}{\texorpdfstring {slowElevatorDown()}{slowElevatorDown()}}{subsubsection.4.14.2.14}{}}
\gdef \LT@xlvii {\LT@entry 
    {3}{26.80359pt}\LT@entry 
    {3}{229.49332pt}}
\gdef \LT@xlviii {\LT@entry 
    {3}{26.80359pt}\LT@entry 
    {3}{301.62666pt}}
\@writefile{toc}{\contentsline {subsubsection}{\numberline {4.14.2.15}stopElevator()}{48}{subsubsection.4.14.2.15}}
\newlabel{myTasks_8cpp_a7e90969cf8141564e3853655631c35b7}{{4.14.2.15}{48}{\texorpdfstring {stopElevator()}{stopElevator()}}{subsubsection.4.14.2.15}{}}
\@writefile{toc}{\contentsline {subsubsection}{\numberline {4.14.2.16}testTask()}{48}{subsubsection.4.14.2.16}}
\newlabel{myTasks_8cpp_ac7a29d57f334c4e8b40df3a3614c90ed}{{4.14.2.16}{48}{\texorpdfstring {testTask()}{testTask()}}{table.4.22}{}}
\@writefile{toc}{\contentsline {subsubsection}{\numberline {4.14.2.17}waitStopFloor()}{48}{subsubsection.4.14.2.17}}
\newlabel{myTasks_8cpp_a8cc6ecae5b915d449d26e566fe8261ba}{{4.14.2.17}{48}{\texorpdfstring {waitStopFloor()}{waitStopFloor()}}{table.4.23}{}}
\@writefile{toc}{\contentsline {subsubsection}{\numberline {4.14.2.18}watchDogTask()}{48}{subsubsection.4.14.2.18}}
\gdef \LT@xlix {\LT@entry 
    {3}{26.80359pt}\LT@entry 
    {3}{229.49332pt}}
\@writefile{toc}{\contentsline {subsection}{\numberline {4.14.3}Variable Documentation}{49}{subsection.4.14.3}}
\newlabel{myTasks_8cpp_ae90186c9ad3fac16c5b2ce8afa48c160}{{4.14.3}{49}{Variable Documentation}{subsection.4.14.3}{}}
\@writefile{toc}{\contentsline {subsubsection}{\numberline {4.14.3.1}FLOOR\_BIT}{49}{subsubsection.4.14.3.1}}
\@writefile{toc}{\contentsline {section}{\numberline {4.15}src/\discretionary {\unhbox \voidb@x \hbox {\relax \fontsize  {7}{8}\selectfont  $\leftarrow \joinrel  \rhook $}}{}{}Uart.cpp File Reference}{49}{section.4.15}}
\newlabel{Uart_8cpp}{{4.15}{49}{src/\+Uart.cpp File Reference}{section.4.15}{}}
\newlabel{Uart_8cpp_a30d2043ca397843e08c43ade3aaee5b2}{{4.15}{49}{Macros}{section*.33}{}}
\newlabel{Uart_8cpp_aa221c0a6e30c0b5947309015109e9371}{{4.15}{49}{Macros}{section*.33}{}}
\newlabel{Uart_8cpp_abadd414de3f9b3d9d2427419b361b7ab}{{4.15}{50}{Variables}{section*.35}{}}
\newlabel{Uart_8cpp_af05fe1902ac04f9cee7ce223317ef2f1}{{4.15}{50}{Variables}{section*.35}{}}
\newlabel{Uart_8cpp_a26b7b0970e6b835ee9d123aa2914efe6}{{4.15}{50}{Variables}{section*.35}{}}
\newlabel{Uart_8cpp_ac6887cb9bd3d85c7877c97e345ca77c1}{{4.15}{50}{Variables}{section*.35}{}}
\newlabel{Uart_8cpp_aee85c28abf73d5ec4f805e7cb82261c0}{{4.15}{50}{Variables}{section*.35}{}}
\newlabel{Uart_8cpp_a0db525f49d1befbee0aa4fd2824d56fc}{{4.15}{50}{Variables}{section*.35}{}}
\newlabel{Uart_8cpp_a391007772689bec1d2ca7911cf7e7f11}{{4.15}{50}{Variables}{section*.35}{}}
\newlabel{Uart_8cpp_a4d8cbdd78f0de461b55339077110272d}{{4.15}{50}{Variables}{section*.35}{}}
\newlabel{Uart_8cpp_af78c069864b4b0e07e4fb7ed0ae4ef4e}{{4.15}{50}{Variables}{section*.35}{}}
\newlabel{Uart_8cpp_aa24b167c2249490cf400884337753380}{{4.15}{50}{Variables}{section*.35}{}}
\newlabel{Uart_8cpp_ac4103e0e660ed4cd0e9d3a05064a58e7}{{4.15}{50}{Variables}{section*.35}{}}
\@writefile{toc}{\contentsline {subsection}{\numberline {4.15.1}Detailed Description}{50}{subsection.4.15.1}}
\gdef \LT@l {\LT@entry 
    {3}{26.80359pt}\LT@entry 
    {3}{38.55362pt}}
\gdef \LT@li {\LT@entry 
    {3}{26.80359pt}\LT@entry 
    {3}{260.36314pt}}
\@writefile{toc}{\contentsline {subsection}{\numberline {4.15.2}Function Documentation}{51}{subsection.4.15.2}}
\newlabel{Uart_8cpp_afa7e3cb925d6150a1f16c1754ad0e727}{{4.15.2}{51}{Function Documentation}{subsection.4.15.2}{}}
\@writefile{toc}{\contentsline {subsubsection}{\numberline {4.15.2.1}isAck()}{51}{subsubsection.4.15.2.1}}
\newlabel{Uart_8cpp_ab5a8dcaee9aeaf1154009baf09e9bed8}{{4.15.2.1}{51}{\texorpdfstring {isAck()}{isAck()}}{table.4.25}{}}
\@writefile{toc}{\contentsline {subsubsection}{\numberline {4.15.2.2}receiveTask()}{51}{subsubsection.4.15.2.2}}
\newlabel{Uart_8cpp_ac951bf140e1c7bf9d815d2a864320c8e}{{4.15.2.2}{51}{\texorpdfstring {receiveTask()}{receiveTask()}}{table.4.26}{}}
\@writefile{toc}{\contentsline {subsubsection}{\numberline {4.15.2.3}receiveTaskBlocking()}{51}{subsubsection.4.15.2.3}}
\gdef \LT@lii {\LT@entry 
    {3}{36.8025pt}\LT@entry 
    {3}{243.19089pt}}
\gdef \LT@liii {\LT@entry 
    {3}{26.80359pt}\LT@entry 
    {3}{278.43411pt}}
\newlabel{Uart_8cpp_af509c53d1b263fb06cefe4f347eb36a2}{{4.15.2.3}{53}{\texorpdfstring {receiveTaskBlocking()}{receiveTaskBlocking()}}{table.4.27}{}}
\@writefile{toc}{\contentsline {subsubsection}{\numberline {4.15.2.4}sendTaskBlocking()}{53}{subsubsection.4.15.2.4}}
\@writefile{toc}{\contentsline {chapter}{Index}{55}{section*.36}}
